module github.com/netobserv/network-observability-cli

go 1.21.0

toolchain go1.21.4

require (
	github.com/eiannone/keyboard v0.0.0-20220611211555-0d226195f203
	github.com/fatih/color v1.16.0
	github.com/google/gopacket v1.1.19
	github.com/jpillora/sizestr v1.0.0
	github.com/mattn/go-sqlite3 v1.14.22
	github.com/netobserv/flowlogs-pipeline v0.1.12-0.20240325100124-fd783b283c7c
	github.com/netobserv/netobserv-ebpf-agent v0.3.4-0.20240322201014-08030df2209f
	github.com/rodaine/table v1.2.0
	github.com/sirupsen/logrus v1.9.3
	github.com/spf13/cobra v1.8.0
	github.com/stretchr/testify v1.9.0
	sigs.k8s.io/e2e-framework v0.3.0
)

require (
	github.com/evanphx/json-patch/v5 v5.6.0 // indirect
	github.com/gorilla/websocket v1.5.0 // indirect
	github.com/moby/spdystream v0.2.0 // indirect
	github.com/mxk/go-flowrate v0.0.0-20140419014527-cca7078d478f // indirect
	sigs.k8s.io/controller-runtime v0.15.1 // indirect
)

require (
	github.com/Knetic/govaluate v3.0.1-0.20171022003610-9aa49832a739+incompatible // indirect
	github.com/agoda-com/opentelemetry-logs-go v0.4.3 // indirect
	github.com/benbjohnson/clock v1.3.5 // indirect
	github.com/beorn7/perks v1.0.1 // indirect
	github.com/cenkalti/backoff/v4 v4.2.1 // indirect
	github.com/cespare/xxhash/v2 v2.2.0 // indirect
	github.com/cilium/ebpf v0.13.2 // indirect
	github.com/davecgh/go-spew v1.1.2-0.20180830191138-d8f796af33cc // indirect
	github.com/dustin/go-humanize v1.0.1 // indirect
	github.com/emicklei/go-restful/v3 v3.11.0 // indirect
	github.com/fsnotify/fsnotify v1.7.0 // indirect
	github.com/gavv/monotime v0.0.0-20190418164738-30dba4353424 // indirect
	github.com/go-kit/kit v0.13.0 // indirect
	github.com/go-kit/log v0.2.1 // indirect
	github.com/go-logfmt/logfmt v0.5.1 // indirect
	github.com/go-logr/logr v1.4.1 // indirect
	github.com/go-logr/stdr v1.2.2 // indirect
	github.com/go-openapi/jsonpointer v0.19.6 // indirect
	github.com/go-openapi/jsonreference v0.20.2 // indirect
	github.com/go-openapi/swag v0.22.3 // indirect
	github.com/gogo/protobuf v1.3.2 // indirect
	github.com/golang/protobuf v1.5.4 // indirect
	github.com/golang/snappy v0.0.4 // indirect
	github.com/google/gnostic-models v0.6.8 // indirect
	github.com/google/go-cmp v0.6.0 // indirect
	github.com/google/gofuzz v1.2.0 // indirect
	github.com/google/uuid v1.6.0 // indirect
	github.com/grpc-ecosystem/grpc-gateway/v2 v2.19.0 // indirect
	github.com/heptiolabs/healthcheck v0.0.0-20211123025425-613501dd5deb // indirect
	github.com/imdario/mergo v0.3.15 // indirect
	github.com/inconshreveable/mousetrap v1.1.0 // indirect
	github.com/ip2location/ip2location-go/v9 v9.7.0 // indirect
	github.com/josharian/intern v1.0.0 // indirect
	github.com/jpillora/backoff v1.0.0 // indirect
	github.com/json-iterator/go v1.1.12 // indirect
	github.com/klauspost/compress v1.17.6 // indirect
	github.com/klauspost/cpuid/v2 v2.2.6 // indirect
	github.com/libp2p/go-reuseport v0.3.0 // indirect
	github.com/mailru/easyjson v0.7.7 // indirect
	github.com/mattn/go-colorable v0.1.13 // indirect
	github.com/mattn/go-isatty v0.0.20 // indirect
	github.com/mdlayher/ethernet v0.0.0-20220221185849-529eae5b6118 // indirect
	github.com/minio/md5-simd v1.1.2 // indirect
	github.com/minio/minio-go/v7 v7.0.69 // indirect
	github.com/minio/sha256-simd v1.0.1 // indirect
	github.com/mitchellh/mapstructure v1.5.0 // indirect
	github.com/modern-go/concurrent v0.0.0-20180306012644-bacd9c7ef1dd // indirect
	github.com/modern-go/reflect2 v1.0.2 // indirect
	github.com/munnerz/goautoneg v0.0.0-20191010083416-a7dc8b61c822 // indirect
	github.com/mwitkow/go-conntrack v0.0.0-20190716064945-2f068394615f // indirect
	github.com/netobserv/gopipes v0.3.0 // indirect
	github.com/netobserv/loki-client-go v0.0.0-20220927092034-f37122a54500 // indirect
	github.com/netsampler/goflow2 v1.3.7 // indirect
	github.com/pierrec/lz4/v4 v4.1.17 // indirect
	github.com/pion/dtls/v2 v2.2.4 // indirect
	github.com/pion/logging v0.2.2 // indirect
	github.com/pion/transport/v2 v2.0.0 // indirect
	github.com/pion/udp v0.1.4 // indirect
	github.com/pkg/errors v0.9.1 // indirect
	github.com/pmezard/go-difflib v1.0.1-0.20181226105442-5d4384ee4fb2 // indirect
	github.com/prometheus/client_golang v1.19.0 // indirect
	github.com/prometheus/client_model v0.5.0 // indirect
	github.com/prometheus/common v0.48.0 // indirect
	github.com/prometheus/procfs v0.12.0 // indirect
	github.com/prometheus/prometheus v1.8.2-0.20201028100903-3245b3267b24 // indirect
	github.com/rs/xid v1.5.0 // indirect
	github.com/segmentio/kafka-go v0.4.47 // indirect
	github.com/spf13/pflag v1.0.5 // indirect
	github.com/stretchr/objx v0.5.2 // indirect
	github.com/vishvananda/netlink v1.1.0 // indirect
	github.com/vishvananda/netns v0.0.4 // indirect
	github.com/vladimirvivien/gexe v0.2.0
	github.com/vmware/go-ipfix v0.9.0 // indirect
	github.com/xdg-go/pbkdf2 v1.0.0 // indirect
	github.com/xdg-go/scram v1.1.2 // indirect
	github.com/xdg-go/stringprep v1.0.4 // indirect
	go.opentelemetry.io/otel v1.24.0 // indirect
	go.opentelemetry.io/otel/exporters/otlp/otlpmetric/otlpmetricgrpc v1.24.0 // indirect
	go.opentelemetry.io/otel/exporters/otlp/otlpmetric/otlpmetrichttp v1.24.0 // indirect
	go.opentelemetry.io/otel/exporters/otlp/otlptrace v1.24.0 // indirect
	go.opentelemetry.io/otel/exporters/otlp/otlptrace/otlptracegrpc v1.24.0 // indirect
	go.opentelemetry.io/otel/exporters/otlp/otlptrace/otlptracehttp v1.24.0 // indirect
	go.opentelemetry.io/otel/metric v1.24.0 // indirect
	go.opentelemetry.io/otel/sdk v1.24.0 // indirect
	go.opentelemetry.io/otel/sdk/metric v1.24.0 // indirect
	go.opentelemetry.io/otel/trace v1.24.0 // indirect
	go.opentelemetry.io/proto/otlp v1.1.0 // indirect
	go.uber.org/atomic v1.9.0 // indirect
	golang.org/x/crypto v0.21.0 // indirect
	golang.org/x/exp v0.0.0-20230905200255-921286631fa9 // indirect
	golang.org/x/net v0.22.0 // indirect
	golang.org/x/oauth2 v0.16.0 // indirect
	golang.org/x/sys v0.18.0 // indirect
	golang.org/x/term v0.18.0 // indirect
	golang.org/x/text v0.14.0 // indirect
	golang.org/x/time v0.5.0 // indirect
	google.golang.org/appengine v1.6.8 // indirect
	google.golang.org/genproto/googleapis/api v0.0.0-20240123012728-ef4313101c80 // indirect
	google.golang.org/genproto/googleapis/rpc v0.0.0-20240123012728-ef4313101c80 // indirect
	google.golang.org/grpc v1.62.1 // indirect
	google.golang.org/protobuf v1.33.0 // indirect
	gopkg.in/inf.v0 v0.9.1 // indirect
	gopkg.in/ini.v1 v1.67.0 // indirect
	gopkg.in/yaml.v2 v2.4.0 // indirect
	gopkg.in/yaml.v3 v3.0.1 // indirect
	k8s.io/api v0.29.3 // indirect
	k8s.io/apimachinery v0.29.3 // indirect
	k8s.io/client-go v0.29.3 // indirect
	k8s.io/klog/v2 v2.110.1 // indirect
	k8s.io/kube-openapi v0.0.0-20231010175941-2dd684a91f00 // indirect
	k8s.io/utils v0.0.0-20230726121419-3b25d923346b // indirect
	lukechampine.com/uint128 v1.2.0 // indirect
	sigs.k8s.io/json v0.0.0-20221116044647-bc3834ca7abd // indirect
	sigs.k8s.io/structured-merge-diff/v4 v4.4.1 // indirect
	sigs.k8s.io/yaml v1.3.0 // indirect
)
